<svg xmlns="http://www.w3.org/2000/svg" id="accounting" width="47.694" height="47.694" viewBox="0 0 47.694 47.694">
    <defs>
        <style>
            .cls-1{fill:#fff}
        </style>
    </defs>
    <path id="Path_32988" d="M45.077 12.077a1.54 1.54 0 0 1 1.539 1.539h1.539a3.073 3.073 0 0 0-2.308-2.968V9h-1.539v1.539H42v3.077a3.08 3.08 0 0 0 3.077 3.077 1.54 1.54 0 0 1 1.539 1.539v1.538h-1.539a1.54 1.54 0 0 1-1.539-1.539H42a3.073 3.073 0 0 0 2.308 2.969v1.648h1.539v-1.54h2.308v-3.077a3.08 3.08 0 0 0-3.077-3.077 1.54 1.54 0 0 1-1.539-1.539v-1.538z" class="cls-1" data-name="Path 32988" transform="translate(-10.46 -2.846)"/>
    <path id="Path_32989" d="M53 17h1.539v1.539H53z" class="cls-1" data-name="Path 32989" transform="translate(-12.999 -4.692)"/>
    <path id="Path_32990" d="M37 17h1.539v1.539H37z" class="cls-1" data-name="Path 32990" transform="translate(-9.307 -4.692)"/>
    <path id="Path_32991" d="M45.077 45a3.071 3.071 0 0 0-.769 6.045v1.648h1.539v-1.648a3.071 3.071 0 0 0-.77-6.045zm0 4.616a1.539 1.539 0 1 1 1.539-1.539 1.54 1.54 0 0 1-1.539 1.539z" class="cls-1" data-name="Path 32991" transform="translate(-10.46 -11.153)"/>
    <path id="Path_32992" d="M48.694 14.077a13.077 13.077 0 0 0-26.155 0c0 .205.026.415.037.623a9.943 9.943 0 0 0-6.191-2.162h-.406a6.3 6.3 0 0 0-5.493 3.177 5.57 5.57 0 0 0-4.1 5.361v4.539a6.864 6.864 0 0 0 4.126 6.309 8.884 8.884 0 0 0 2.8 3.128v.593a1.539 1.539 0 0 1-.922 1.409l-5.995 2.624A9 9 0 0 0 1 47.925v.769h30.77v-.769a8.979 8.979 0 0 0-.683-3.426 6.882 6.882 0 0 0 3.76 1.118h1.539a6.931 6.931 0 0 0 6.923-6.923v-4.616a2.3 2.3 0 0 0-1.539-2.166v-3.219a6.106 6.106 0 0 0-.663-2.763 13.153 13.153 0 0 0 7.587-11.853zM7.923 25.616v-4.539a4.026 4.026 0 0 1 3.228-3.937l.368-.074.168-.337a4.771 4.771 0 0 1 4.29-2.652h.407a8.472 8.472 0 0 1 8.462 8.462v3.077a5.33 5.33 0 0 1-1.733 3.939 8.9 8.9 0 0 0 .195-1.82v-4.042l-2.185-1.639a5.268 5.268 0 0 0-6.45.1l-1.382 1.106a3.748 3.748 0 0 1-2.33.817h-1.5v3.657a8.9 8.9 0 0 0 .195 1.82 5.33 5.33 0 0 1-1.733-3.938zm18.462 0v-2.294a13.019 13.019 0 0 0 3.739 2.61 6.106 6.106 0 0 0-.662 2.762v3.219a2.3 2.3 0 0 0-1.539 2.166v4.616a6.9 6.9 0 0 0 .326 2.1 8.967 8.967 0 0 0-1.875-1.113l-5.992-2.622a1.541 1.541 0 0 1-.922-1.41v-.593a8.876 8.876 0 0 0 2.8-3.128 6.862 6.862 0 0 0 4.126-6.309zm9.231-1.539a4.62 4.62 0 0 1 4.616 4.616v3.077h-1.538v-3.077a3.077 3.077 0 1 0-6.154 0v3.077H31v-3.077a4.62 4.62 0 0 1 4.617-4.615zm1.539 7.693h-3.077v-3.077a1.539 1.539 0 1 1 3.077 0zM16.17 44.078h.43l1.025 3.077h-2.481zm.509-1.539h-.588L15.27 40.9l1.115-1.115L17.5 40.9zm2.4-2.238l-1.545-1.545 1.242-.993a3.063 3.063 0 0 0 .85.626zM11 27.735v-2.119a5.3 5.3 0 0 0 3.252-1.154l1.382-1.106a3.829 3.829 0 0 1 4.567-.072l1.569 1.179v3.272a7.345 7.345 0 0 1-5.385 7.086A7.346 7.346 0 0 1 11 27.735zm5.2 8.628l.186.047.186-.048a8.87 8.87 0 0 0 1.371-.465 3.072 3.072 0 0 0 .082.5l-1.639 1.312-1.639-1.309a3.072 3.072 0 0 0 .082-.5 9.036 9.036 0 0 0 1.371.465zm-2.207 1.4l1.242.993-1.646 1.644-.747-1.867.16-.07a3.081 3.081 0 0 0 .99-.7zM7.01 41.086l4.422-1.935 1.6 3.988 1.1-1.1.662 1.325-1.262 3.787H8.093l.585-2.926-1.509-.3-.646 3.228H2.579a7.467 7.467 0 0 1 4.431-6.067zm19.237 6.069l-.647-3.227-1.509.3.585 2.925h-5.429l-1.262-3.787.662-1.325 1.2 1.2 1.2-4.215 4.712 2.062a7.465 7.465 0 0 1 4.432 6.069h-3.944zm15.524-8.462a5.392 5.392 0 0 1-5.385 5.385h-1.539a5.392 5.392 0 0 1-5.385-5.385v-4.615a.77.77 0 0 1 .769-.769H41a.77.77 0 0 1 .769.769zm-1.542-14.06a6.156 6.156 0 0 0-1.314-1.126 10 10 0 1 0-6.6 0A6.2 6.2 0 0 0 31 24.634a11.48 11.48 0 0 1-4.786-3.881 9.936 9.936 0 0 0-1.862-4.229 11.534 11.534 0 1 1 15.875 8.11zm-4.612-2.094a8.462 8.462 0 1 1 8.462-8.462 8.472 8.472 0 0 1-8.462 8.462z" class="cls-1" data-name="Path 32992" transform="translate(-1 -1)"/>
</svg>
