<svg xmlns="http://www.w3.org/2000/svg" width="17.924" height="17.875" viewBox="0 0 17.924 17.875">
    <defs>
        <style>
            .cls-1{fill:none}.cls-2{clip-path:url(#clip-path)}.cls-3{fill:#fff}
        </style>
        <clipPath id="clip-path">
            <path d="M0 0h17.924v17.875H0z" class="cls-1"/>
        </clipPath>
    </defs>
    <g id="Icons_15x15_Red_Comment_Bright" class="cls-2" data-name="Icons/15x15/Red/Comment Bright">
        <path id="Shape" d="M16.132 0H1.792A1.882 1.882 0 0 0 0 1.915V12.13a1.664 1.664 0 0 0 1.792 1.657h7.767l4.228 4.087c.115-.048 0-4.087 0-4.087h2.344a1.664 1.664 0 0 0 1.792-1.657V1.915A1.882 1.882 0 0 0 16.132 0z" class="cls-3"/>
    </g>
</svg>
