<svg xmlns="http://www.w3.org/2000/svg" width="16" height="16" viewBox="0 0 16 16">
    <defs>
        <style>
            .cls-1{fill:#fff;font-size:16px;font-family:FontAwesome}
        </style>
    </defs>
    <text id="_" class="cls-1" data-name="" transform="translate(0 14)">
        <tspan x="0" y="0"></tspan>
    </text>
</svg>
