<svg xmlns="http://www.w3.org/2000/svg" width="43.318" height="43.318" viewBox="0 0 43.318 43.318">
    <defs>
        <style>
            .cls-1{fill:#fff}.cls-2{filter:url(#Path_34728)}
        </style>
        <filter id="Path_34728" width="43.318" height="43.318" x="0" y="0" filterUnits="userSpaceOnUse">
            <feOffset dy="3"/>
            <feGaussianBlur result="blur" stdDeviation="3"/>
            <feFlood flood-opacity=".161"/>
            <feComposite in2="blur" operator="in"/>
            <feComposite in="SourceGraphic"/>
        </filter>
    </defs>
    <g id="messenger_1_" data-name="messenger (1)" transform="translate(9 6)">
        <g id="Group_5487" class="cls-2" data-name="Group 5487" transform="translate(-9 -6)">
            <path id="Path_34728-2" d="M12.659 0C5.668 0 0 5.247 0 11.721a11.4 11.4 0 0 0 4.717 9.127v4.47l4.31-2.366a13.614 13.614 0 0 0 3.632.491c6.991 0 12.659-5.247 12.659-11.721S19.65 0 12.659 0zm1.258 15.784l-3.223-3.439L4.4 15.784l6.92-7.345 3.3 3.439 6.211-3.439z" class="cls-1" data-name="Path 34728" transform="translate(9 6)"/>
        </g>
    </g>
</svg>
