<svg xmlns="http://www.w3.org/2000/svg" id="Group_27" width="39.073" height="33.824" data-name="Group 27" viewBox="0 0 39.073 33.824">
    <defs>
        <style>
            .cls-1{fill:#ffbf00}.cls-2{clip-path:url(#clip-path)}
        </style>
        <clipPath id="clip-path">
            <path id="Rectangle_36" d="M0 0h39.073v33.824H0z" class="cls-1" data-name="Rectangle 36"/>
        </clipPath>
    </defs>
    <g id="Group_25" class="cls-2" data-name="Group 25">
        <path id="Path_20" d="M0 24.27a9.214 9.214 0 1 0 9.21-9.215 8.4 8.4 0 0 0-2.974.525c2.1-11.955 11.372-19.595 2.741-13.3C-.529 9.282 0 23.978 0 24.27zm0 0" class="cls-1" data-name="Path 20" transform="translate(.004 -.01)"/>
    </g>
    <g id="Group_26" class="cls-2" data-name="Group 26">
        <path id="Path_21" d="M34.8 24.27a9.214 9.214 0 1 0 9.214-9.214 8.4 8.4 0 0 0-2.974.525c2.041-11.955 11.314-19.595 2.741-13.3-9.564 7-8.981 21.694-8.981 21.986zm0 0" class="cls-1" data-name="Path 21" transform="translate(-14.501 -.01)"/>
    </g>
</svg>
