<svg xmlns="http://www.w3.org/2000/svg" width="10" height="10" viewBox="0 0 10 10">
    <defs>
        <style>
            .cls-1{fill:none}.cls-2{clip-path:url(#clip-path)}.cls-3{fill:#bf9b30}
        </style>
        <clipPath id="clip-path">
            <path d="M0 0h10v10H0z" class="cls-1"/>
        </clipPath>
    </defs>
    <g id="Symbol_156_1" class="cls-2" data-name="Symbol 156 – 1">
        <path id="Path_36" d="M6.7 8.1L2 3.4 3.4 2l3.3 3.3L10 2l1.4 1.4z" class="cls-3" data-name="Path 36" transform="translate(-2)"/>
        <path id="Rectangle_1467" d="M0 0h10v10H0z" class="cls-1" data-name="Rectangle 1467"/>
    </g>
</svg>
